08/05/2018 ==> Intento de dividir por cero.    en WA_Bootstrap.Formularios.WebFormGenerarError.btnError_Click(Object sender, EventArgs e) en D:\Diplomado_NET\Clase18_SolucionBootstrap\WA_Bootstrap\Formularios\WebFormGenerarError.aspx.cs:línea 23
08/05/2018 ==> Intento de dividir por cero.    en WA_Bootstrap.Formularios.WebFormGenerarError.btnError_Click(Object sender, EventArgs e) en D:\Diplomado_NET\Clase18_SolucionBootstrap\WA_Bootstrap\Formularios\WebFormGenerarError.aspx.cs:línea 23
08/05/2018 ==> Intento de dividir por cero.    en WA_Bootstrap.Formularios.WebFormGenerarError.btnError_Click(Object sender, EventArgs e) en D:\Diplomado_NET\Clase18_SolucionBootstrap\WA_Bootstrap\Formularios\WebFormGenerarError.aspx.cs:línea 23
08/05/2018 ==> Intento de dividir por cero.    en WA_Bootstrap.Formularios.WebFormGenerarError.btnError_Click(Object sender, EventArgs e) en D:\Diplomado_NET\Clase18_SolucionBootstrap\WA_Bootstrap\Formularios\WebFormGenerarError.aspx.cs:línea 23
08/05/2018 ==> Intento de dividir por cero.    en WA_Bootstrap.Formularios.WebFormGenerarError.btnError_Click(Object sender, EventArgs e) en D:\Diplomado_NET\Clase18_SolucionBootstrap\WA_Bootstrap\Formularios\WebFormGenerarError.aspx.cs:línea 23
08/05/2018 ==> Intento de dividir por cero.    en WA_Bootstrap.Formularios.WebFormGenerarError.btnError_Click(Object sender, EventArgs e) en D:\Diplomado_NET\Clase18_SolucionBootstrap\WA_Bootstrap\Formularios\WebFormGenerarError.aspx.cs:línea 23
08/05/2018 ==> Intento de dividir por cero.    en WA_Bootstrap.Formularios.WebFormGenerarError.btnError_Click(Object sender, EventArgs e) en D:\Diplomado_NET\Clase18_SolucionBootstrap\WA_Bootstrap\Formularios\WebFormGenerarError.aspx.cs:línea 23
08/05/2018 ==> Intento de dividir por cero.    en WA_Bootstrap.Formularios.WebFormGenerarError.btnError_Click(Object sender, EventArgs e) en D:\Diplomado_NET\Clase18_SolucionBootstrap\WA_Bootstrap\Formularios\WebFormGenerarError.aspx.cs:línea 23
08/05/2018 ==> Intento de dividir por cero.    en WA_Bootstrap.Formularios.WebFormGenerarError.btnError_Click(Object sender, EventArgs e) en D:\Diplomado_NET\Clase18_SolucionBootstrap\WA_Bootstrap\Formularios\WebFormGenerarError.aspx.cs:línea 23
08/05/2018 ==> Intento de dividir por cero.    en WA_Bootstrap.Formularios.WebFormGenerarError.btnError_Click(Object sender, EventArgs e) en D:\Diplomado_NET\Clase18_SolucionBootstrap\WA_Bootstrap\Formularios\WebFormGenerarError.aspx.cs:línea 23
08/05/2018 ==> Intento de dividir por cero.    en WA_Bootstrap.Formularios.WebFormGenerarError.btnError_Click(Object sender, EventArgs e) en D:\Diplomado_NET\Clase18_SolucionBootstrap\WA_Bootstrap\Formularios\WebFormGenerarError.aspx.cs:línea 23
08/05/2018 ==> Intento de dividir por cero.    en WA_Bootstrap.Formularios.WebFormGenerarError.btnError_Click(Object sender, EventArgs e) en D:\Diplomado_NET\Clase18_SolucionBootstrap\WA_Bootstrap\Formularios\WebFormGenerarError.aspx.cs:línea 23
